question,qid,type,task,task_type
question1,3001,MQ,task1,MQ
question1,3002,SQ,task1,SQ
question1,3003,SQ,task1,SQ
question2,3004,MQ,task1,MQ
question1,3005,SQ,task1,SQ
question1,3006,SQ,task1,SQ
question1,3007,SQ,task1,SQ
question3,3008,MQ,task1,MQ
question1,3009,SQ,task1,SQ
question1,3010,SQ,task1,SQ
question4,3011,MQ,task1,MQ
question1,3012,SQ,task1,SQ
question5,3013,MQ,task1,MQ
question1,3014,SQ,task1,SQ
question2,3015,SQ,task1,SQ
question6,3016,MQ,task1,MQ
question1,3017,SQ,task1,SQ
question2,3018,SQ,task1,SQ
question7,3019,MQ,task1,MQ
question1,3020,SQ,task1,SQ
question2,3021,SQ,task1,SQ
question8,3022,MQ,task1,MQ
question1,3023,SQ,task1,SQ
question2,3024,SQ,task1,SQ
question9,3025,MQ,task1,MQ
question1,3026,SQ,task1,SQ
question10,3027,MQ,No action required.,MQ
question1,3028,SQ,task1,SQ
question2,3029,SQ,task1,SQ
question11,3030,MQ,No action required.,MQ
question1,3031,SQ,task1,SQ
question2,3032,SQ,task1,SQ
question12,3033,MQ,No action required.,MQ
question1,3034,SQ,task1,SQ
question2,3035,SQ,task1,SQ
question13,3036,MQ,task1,MQ
question2,3037,SQ,task1,SQ
question14,3038,MQ,task1,MQ
question2,3039,SQ,task1,SQ
question2,3040,SQ,task1,SQ
question15,3041,MQ,task1,MQ
question2,3042,SQ,task1,SQ
question2,3043,SQ,task1,SQ
question16,3044,MQ,task1,MQ
question2,3045,SQ,task1,SQ
question2,3046,SQ,task1,SQ
question17,3047,MQ,task1,MQ
question2,3048,SQ,task1,SQ
question2,3049,SQ,task1,SQ
question2,3050,SQ,task1,SQ
question18,3051,MQ,task1,MQ
question2,3052,SQ,task1,SQ
question2,3053,SQ,task1,SQ
question2,3054,SQ,task1,SQ
question19,3055,MQ,task1,MQ
question2,3056,SQ,task1,SQ
question2,3057,SQ,task1,SQ
question20,3058,MQ,task1,MQ
question2,3059,SQ,task1,SQ
question2,3060,SQ,task1,SQ
question21,3061,MQ,task1,MQ
question2,3062,SQ,task1,SQ
question2,3063,SQ,task1,SQ
question22,3064,MQ,task1,MQ
question2,3065,SQ,task1,SQ
