Data Collection,Target Entity,Properties,Description,Gen_Reg_ID,additional General Requirements/ Property,QMs,Decription,QMEs,Data Quality Characteristics,ID,Quality Measurement,Description.1,Quality Measurement Elements,Questions for Guideline,Answer,Task,Questions for Guideline.1,Answer.1,Task.1,Questions for Guideline.2,Answer.2,Task.2,Questions for Guideline.3,Answer.3,Task.3,Questions for Guideline.4,Answer.4,Task.4
,Data File,Data Format,des1,,,,,,Compliance,Cmp-I-1,Regulatory compliance of value and/or format = X = A/B,des1,"A= number of data items that have values and/or format that conform to standards, conventions or regulations
B= number of data items that shall conform to standards, conventions or regulations due to their value",question1,Yes,,question1,Yes,,question1,Yes,,,,,question1,Yes,
,,,,,,,,,,,Regulatory compliance of value and/or format = X = A/B,,,,No,task1,,No,task1,,No,task1,,,,,No,task1
,Data File,Data Format,,,,,,,Precision,Pre-D-1,Precision of data format = X = A/B,des11,"A= number of data items defined and perceived with the requested precision/data format
B= number of data items for which precision of format is required",question2,Yes,,question1,Yes,,question1,Yes,,question1,Yes,,,,
,,,,,,,,,,,Precision of data format = X = A/B,,,,No,task1,,No,task1,,No,task1,,No,task1,,,
,Data File,Data Item,des2,,,,,,Accuracy,Acc-I-1,Syntactic data accuracy = X = A/B,des2,"A= number of data items which have related values syntactically accurate
B= number of data items for which syntactic accuracy is required",question3,Yes,,question1,Yes,,question1,Yes,,,,,,,
,,,,,,,,,,,,,,,No,task1,,No,task1,,No,task1,,,,,,
,Data File,Data Item,,,,,,,Accuracy,Acc-I-3,Data accuracy assurance = X = A/B,des3,"A= number of data items measured for accuracy
B= number of data items for which measurement is required for accuracy",question4,Yes,,question1,Yes,,,,,,,,,,
,,,,,,,,,,,Data accuracy assurance = X = A/B,,,,No,task1,,No,task1,,,,,,,,,
,Data File,Data Item,,,,,,,Accuracy,Acc-I-7,Data accuracy range = X = A/B,des4,"A= number of data items having a value included in a specified interval (i.e. range from minimum to maximum)
B= number of data items for which can be defined a required interval of values",question5,Yes,,question1,Yes,,question2,Yes,,,,,,,
,,,,,,,,,,,Data accuracy range = X = A/B,,,,No,task1,,No,task1,,No,task1,,,,,,
,Data File,Data Item,,,,,,,Completeness,Com-I-1,Record completeness = X = A/B,des4,"A= number of data items with associated value not null in a record
B= number of data items of the record for which completeness can be measured",question6,Yes,,question1,Yes,,question2,Yes,,,,,,,
,,,,,,,,,,,Record completeness = X = A/B,,,,No,task1,,No,task1,,No,task1,,,,,,
,Data File,Data Item,,,,,,,Completeness,Com-I-2,Attribute completeness = X = A/B,des4,"
A= number of records with associated values not null for a specific data item
B= number of records counted",question7,Yes,,question1,Yes,,question2,Yes,,,,,,,
,,,,,,,,,,,Attribute completeness = X = A/B,,,,No,task1,,No,task1,,No,task1,,,,,,
,Data File,Data Item,,,,,,,Completeness,Com-I-4,Data values completeness = X = A/B,des4,"A= number of data values for a data item in a data file connected to expected values
B= number of data values expected for a data item in a data file",question8,Yes,,question1,Yes,,question2,Yes,,,,,,,
,,,,,,,,,,,Data values completeness = X = A/B,,,,No,task1,,No,task1,,No,task1,,,,,,
,Data File,Data Item,,,,,,,Completeness,Com-I-5,Empty records in a data file = X = 1-A/B,des47,"A= number of records where all data items are empty
B= number of records in a data file",question9,Yes,,question1,Yes,,,,,,,,,,
,,,,,,,,,,,Empty records in a data file = X = 1-A/B,,,,No,task1,,No,task1,,,,,,,,,
,Data File,Data Item,,,,,,,Consistency,Con-I-1,Referential integrity  = X = 1-A/B,des45,"A= number of data items not consistent by value
B= number of data items for which referential integrity must be defined",question10,Yes,,question1,Yes,,question2,Yes,,,,,,,
,,,,,,,,,,,Referential integrity  = X = 1-A/B,,,,No,No action required.,,No,task1,,No,task1,,,,,,
,Data File,Data Item,,,,,,,Consistency,Con-I-2,Data format consistency = X = A/B,des43,"A= number of data items where the format of all properties is consistent in different data files
B= number of data items for which format consistency can be defined",question11,Yes,,question1,Yes,,question2,Yes,,,,,,,
,,,,,,,,,,,Data format consistency = X = A/B,,,,No,No action required.,,No,task1,,No,task1,,,,,,
,Data File,Data Item,,,,,,,Consistency,Con-I-3,Risk of data inconsistency  = X = A/B,des4,"A= Number of data items where exist duplication in value
B= Number of data items considered ",question12,Yes,,question1,Yes,,question2,Yes,,,,,,,
,,,,,,,,,,,Risk of data inconsistency  = X = A/B,,,,No,No action required.,,No,task1,,No,task1,,,,,,
,Data File,Data Item,,,,,,,Consistency,Con-I-5,Data values consistency coverage = X = A/B,des5,"A= number of data items considered in consistency measurement of data values
B= number of data items for which consistency are measured",question13,Yes,,question2,Yes,,,,,,,,,,
,,,,,,,,,,,Data values consistency coverage = X = A/B,,,,No,task1,,No,task1,,,,,,,,,
,Data File,Data Item,,,,,,,Consistency,Con-I-6,Semantic consistency = X = A/B,des6,"A=number of data items where values are semantically correct in the data file
B=number of data items for which semantic rules are defined",question14,Yes,,question2,Yes,,question2,Yes,,,,,,,
,,,,,,,,,,,,,,,No,task1,,No,task1,,No,task1,,,,,,
,Data File,Data Item,,,,,,,Compliance,Cmp-D-1,Regulatory compliance due to technology = X = A/B,des7,"A= number of data items that conforms to standards, conventions or regulations due to technology
B= number of data items that shall conform to standards, conventions or regulations due to technology",question15,Yes,,question2,Yes,,question2,Yes,,,,,,,
,,,,,,,,,,,Regulatory compliance due to technology = X = A/B,,,,No,task1,,No,task1,,No,task1,,,,,,
,Data File,Data Item,,,,,,,Confidentiality,Cnf-D-1,Non vulnerability = X = 1-A/B,des8,"A= number of accesses successfully performed during formal penetration attempts by unauthorized users to reach target data item in a specific period of time
B= number of accesses attempted by unauthorized users to target data item in a specific period of time",question16,Yes,,question2,Yes,,question2,Yes,,,,,,,
,,,,,,,,,,,Non vulnerability = X = 1-A/B,,,,No,task1,,No,task1,,No,task1,,,,,,
,Data File,Data Item,,,,,,,Traceability,Tra-D-1,Users access traceability = X = A/B,des9,"A= number of data items for which user access traceability is expected and realized
B= number of data items for which user access traceability is expected",question17,Yes,,question2,Yes,,question2,Yes,,question2,Yes,,,,
,,,,,,,,,,,Users access traceability = X = A/B,,,,No,task1,,No,task1,,No,task1,,No,task1,,,
,Data File,Data Item,,,,,,,Understandability,Und-I-3,Master data understandability = X = A/B,des11,"A=number of data items of master data files with existing metadata
B=number of data items of master data files",question18,Yes,,question2,Yes,,question2,Yes,,question2,Yes,,,,
,,,,,,,,,,,Master data understandability = X = A/B,,,,No,task1,,No,task1,,No,task1,,No,task1,,,
,Data File,Data Item,,,,,,,Understandability,Und-D-3,Linked master data understandability = X = A/B,des11,"A=number of data items of master data files with automatic linked understandable metadata
B=number of data items of master data files",question19,Yes,,question2,Yes,,question2,Yes,,,,,,,
,,,,,,,,,,,Linked master data understandability = X = A/B,,,,No,task1,,No,task1,,No,task1,,,,,,
,Data File,Data Item,,,,,,,Availability,Ava-D-1,Data availability ratio = X = A/B,des2,"A= number of data items available in a specific period of time
B= number of data items requested in the same period of time",question20,Yes,,question2,Yes,,question2,Yes,,,,,,,
,,,,,,,,,,,Data availability ratio = X = A/B,,,,No,task1,,No,task1,,No,task1,,,,,,
,Data File,Data Item,,,,,,,Availability,Ava-D-2,Probability of data available = X = A/B,des4,"A= number of times that data items are available for the requested duration
B= number of times that data items are requested for the requested duration",question21,Yes,,question2,Yes,,question2,Yes,,,,,,,
,,,,,,,,,,,Probability of data available = X = A/B,,,,No,task1,,No,task1,,No,task1,,,,,,
,Data File,Data Item,,,,,,,Portability,Por-D-1,Data portability ratio = X = A/B,des4,"A= number of data items that preserve existing quality after porting
B= number of data items ported",question22,Yes,,question2,Yes,,,,,,,,,,
,,,,,,,,,,,,,,,No,task1,,No,task1,,,,,,,,,
