task,qid,task_type
task1,5001,MQ
task1,5002,SQ
task1,5003,SQ
task1,5004,MQ
task1,5005,SQ
task1,5006,SQ
task1,5007,SQ
task1,5008,MQ
task1,5009,SQ
task1,5010,SQ
task1,5011,MQ
task1,5012,SQ
task1,5013,MQ
task1,5014,SQ
task1,5015,SQ
task1,5016,MQ
task1,5017,SQ
task1,5018,SQ
task1,5019,MQ
task1,5020,SQ
task1,5021,SQ
task1,5022,MQ
task1,5023,SQ
task1,5024,SQ
task1,5025,MQ
task1,5026,SQ
No action required.,5027,MQ
task1,5028,SQ
task1,5029,SQ
No action required.,5030,MQ
task1,5031,SQ
task1,5032,SQ
No action required.,5033,MQ
task1,5034,SQ
task1,5035,SQ
task1,5036,MQ
task1,5037,SQ
task1,5038,MQ
task1,5039,SQ
task1,5040,SQ
task1,5041,MQ
task1,5042,SQ
task1,5043,SQ
task1,5044,MQ
task1,5045,SQ
task1,5046,SQ
task1,5047,MQ
task1,5048,SQ
task1,5049,SQ
task1,5050,SQ
task1,5051,MQ
task1,5052,SQ
task1,5053,SQ
task1,5054,SQ
task1,5055,MQ
task1,5056,SQ
task1,5057,SQ
task1,5058,MQ
task1,5059,SQ
task1,5060,SQ
task1,5061,MQ
task1,5062,SQ
task1,5063,SQ
task1,5064,MQ
task1,5065,SQ
